{"count":14,"next":"https://jarbas.serenata.ai/api/chamber_of_deputies/reimbursement/?limit=7&offset=7&suspicions=1","previous":null,"results":[{"all_numbers":[6366],"document_value":53.6,"probability":null,"receipt":{"fetched":true,"url":"http://www.camara.gov.br/cota-parlamentar/documentos/publ/995/2018/6652914.pdf"},"rosies_tweet":null,"remark_value":0.0,"total_net_value":53.6,"total_value":0.0,"document_id":6652914,"last_update":"2018-09-13T04:32:06.214883-03:00","year":2018,"applicant_id":995,"congressperson_id":74537,"congressperson_name":"CLAUDIO CAJADO","congressperson_document":186,"party":"PP","state":"BA","term_id":55,"term":2015,"subquota_number":13,"subquota_description":"Congressperson meal","subquota_group_id":0,"subquota_group_description":"","supplier":"MASTER FOODS SALVADOR LTDA","cnpj_cpf":"08561781000286","document_type":0,"document_number":"00891","issue_date":"2018-08-13","month":8,"installment":0,"batch_number":1522769,"passenger":"","leg_of_the_trip":"","suspicions":{"meal_price_outlier":true},"receipt_text":null,"search_vector":"'08561781000286':7A 'ba':9B 'caj':2A 'claudi':1A 'congressperson':10 'foods':4A 'ltda':6A 'mast':3A 'meal':11 'pp':8A 'salvador':5A"},{"all_numbers":[6367],"document_value":75.0,"probability":null,"receipt":{"fetched":true,"url":"http://www.camara.gov.br/cota-parlamentar/documentos/publ/2906/2018/6654079.pdf"},"rosies_tweet":null,"remark_value":0.0,"total_net_value":75.0,"total_value":0.0,"document_id":6654079,"last_update":"2018-09-13T10:08:08.230948-03:00","year":2018,"applicant_id":2906,"congressperson_id":178890,"congressperson_name":"ADELMO CARNEIRO LEÃO","congressperson_document":221,"party":"PT","state":"MG","term_id":55,"term":2015,"subquota_number":3,"subquota_description":"Fuels and lubricants","subquota_group_id":1,"subquota_group_description":"Veículos Automotores","supplier":"Posto Zumbi Ltda","cnpj_cpf":"16961230000157","document_type":0,"document_number":"134742","issue_date":"2018-08-06","month":8,"installment":0,"batch_number":1523284,"passenger":"","leg_of_the_trip":"","suspicions":{"election_expenses":true,"irregular_companies_classifier":true},"receipt_text":null,"search_vector":"'16961230000157':7A 'adelm':1A 'and':11 'automotor':14 'carneir':2A 'fuels':10 'leã':3A 'ltda':6A 'lubricants':12 'mg':9B 'post':4A 'pt':8A 'veícul':13 'zumb':5A"},{"all_numbers":[6364],"document_value":239.13,"probability":null,"receipt":{"fetched":true,"url":null},"rosies_tweet":null,"remark_value":136.22,"total_net_value":102.91,"total_value":0.0,"document_id":6649686,"last_update":"2018-09-13T10:27:34.574669-03:00","year":2018,"applicant_id":3071,"congressperson_id":178916,"congressperson_name":"DANIEL COELHO","congressperson_document":144,"party":"PPS","state":"PE","term_id":55,"term":2015,"subquota_number":10,"subquota_description":"Telecommunication","subquota_group_id":0,"subquota_group_description":"","supplier":"NET BRASILIA LTDA","cnpj_cpf":"26499392000179","document_type":0,"document_number":"040047668745","issue_date":"2018-08-05","month":8,"installment":0,"batch_number":1522387,"passenger":"","leg_of_the_trip":"","suspicions":{"irregular_companies_classifier":true},"receipt_text":null,"search_vector":"'26499392000179':6A 'brasil':4A 'coelh':2A 'daniel':1A 'ltda':5A 'net':3A 'pe':8B 'pps':7A 'telecommunication':9"},{"all_numbers":[6366],"document_value":145.5,"probability":null,"receipt":{"fetched":true,"url":"http://www.camara.gov.br/cota-parlamentar/documentos/publ/2354/2018/6651736.pdf"},"rosies_tweet":null,"remark_value":0.0,"total_net_value":145.5,"total_value":0.0,"document_id":6651736,"last_update":"2018-09-13T10:25:11.022618-03:00","year":2018,"applicant_id":2354,"congressperson_id":160515,"congressperson_name":"RONALDO BENEDET","congressperson_document":484,"party":"MDB","state":"SC","term_id":55,"term":2015,"subquota_number":13,"subquota_description":"Congressperson meal","subquota_group_id":0,"subquota_group_description":"","supplier":"Churrascaria Cascata Ltda","cnpj_cpf":"04903822000133","document_type":0,"document_number":"137819","issue_date":"2018-08-02","month":8,"installment":0,"batch_number":1522364,"passenger":"","leg_of_the_trip":"","suspicions":{"meal_price_outlier":true},"receipt_text":null,"search_vector":"'04903822000133':6A 'benedet':2A 'cascat':4A 'churrasc':3A 'congressperson':9 'ltda':5A 'mdb':7A 'meal':10 'ronald':1A 'sc':8B"},{"all_numbers":[6384],"document_value":59.0,"probability":null,"receipt":{"fetched":true,"url":null},"rosies_tweet":null,"remark_value":0.0,"total_net_value":59.0,"total_value":0.0,"document_id":6655595,"last_update":"2018-09-13T04:32:06.404129-03:00","year":2018,"applicant_id":2970,"congressperson_id":178996,"congressperson_name":"GIOVANI FELTES","congressperson_document":494,"party":"MDB","state":"RS","term_id":55,"term":2015,"subquota_number":10,"subquota_description":"Telecommunication","subquota_group_id":0,"subquota_group_description":"","supplier":"NET BRASILIA LTDA","cnpj_cpf":"26499392000179","document_type":0,"document_number":"0000237637","issue_date":"2018-07-24","month":7,"installment":0,"batch_number":1524136,"passenger":"","leg_of_the_trip":"","suspicions":{"irregular_companies_classifier":true},"receipt_text":null,"search_vector":"'26499392000179':6A 'brasil':4A 'felt':2A 'giovan':1A 'ltda':5A 'mdb':7A 'net':3A 'rs':8B 'telecommunication':9"},{"all_numbers":[6382],"document_value":105.02,"probability":null,"receipt":{"fetched":true,"url":"http://www.camara.gov.br/cota-parlamentar/documentos/publ/2871/2018/6662401.pdf"},"rosies_tweet":null,"remark_value":0.0,"total_net_value":105.02,"total_value":0.0,"document_id":6662401,"last_update":"2018-09-13T04:32:08.382747-03:00","year":2018,"applicant_id":2871,"congressperson_id":177282,"congressperson_name":"SUBTENENTE GONZAGA","congressperson_document":273,"party":"PDT","state":"MG","term_id":55,"term":2015,"subquota_number":3,"subquota_description":"Fuels and lubricants","subquota_group_id":1,"subquota_group_description":"Veículos Automotores","supplier":"Posto Zumbi Ltda","cnpj_cpf":"16961230000157","document_type":0,"document_number":"127877","issue_date":"2018-07-14","month":7,"installment":0,"batch_number":1526366,"passenger":"","leg_of_the_trip":"","suspicions":{"election_expenses":true,"irregular_companies_classifier":true},"receipt_text":null,"search_vector":"'16961230000157':6A 'and':10 'automotor':13 'fuels':9 'gonzag':2A 'ltda':5A 'lubricants':11 'mg':8B 'pdt':7A 'post':3A 'subtenent':1A 'veícul':12 'zumb':4A"},{"all_numbers":[6354],"document_value":64.8,"probability":null,"receipt":{"fetched":true,"url":null},"rosies_tweet":null,"remark_value":0.0,"total_net_value":64.8,"total_value":0.0,"document_id":6630284,"last_update":"2018-09-13T04:31:57.223362-03:00","year":2018,"applicant_id":2244,"congressperson_id":160651,"congressperson_name":"ROGÉRIO PENINHA MENDONÇA","congressperson_document":483,"party":"MDB","state":"SC","term_id":55,"term":2015,"subquota_number":13,"subquota_description":"Congressperson meal","subquota_group_id":0,"subquota_group_description":"","supplier":"SERVICO NACIONAL DE APRENDIZAGEM COMERCIAL SENAC","cnpj_cpf":"33469172000672","document_type":4,"document_number":"13862","issue_date":"2018-07-11","month":7,"installment":0,"batch_number":1514186,"passenger":"","leg_of_the_trip":"","suspicions":{"meal_price_outlier":true},"receipt_text":null,"search_vector":"'33469172000672':10A 'aprendizag':7A 'comercial':8A 'congressperson':13 'mdb':11A 'meal':14 'mendonc':3A 'nacional':5A 'peninh':2A 'rogéri':1A 'sc':12B 'senac':9A 'servic':4A"}]}